{
    "Installation":[
        {
            "description":"The Ninja Way",
            "blocks":[
                {
                    "text":"The easiest way to install, directly on metal, is through git. The following operating systems are supported.",
                    "list":[
                        {
                            "text":"Ubuntu 17.10.1"
                        },
                        {
                            "text":"CentOS 7"
                        },
                        {
                            "text":"MacOS 10.7(+)"
                        }
                    ]
                },
                {
                    "orderList":[
                        {
                            "text":"Become <b>root</b> to use the installer and run Shinobi. Use one of the following to do so.",
                            "list":[
                                {
                                    "text":"<b>Ubuntu</b> 17.10.1",
                                    "code":"sudo su"
                                },
                                {
                                    "text":"<b>CentOS</b> 7",
                                    "code":"su"
                                },
                                {
                                    "text":"<b>MacOS</b> 10.7(+)",
                                    "code":"su"
                                }
                            ]
                        },
                        {
                           "text":"Download and run the installer.",
                           "code":"bash <(curl -s https://gitlab.com/Shinobi-Systems/Shinobi-Installer/raw/master/shinobi-install.sh)"
                        }
                    ]
                }
            ]
        },
        {
            "description":"Docker",
            "blocks":[
                {
                    "text":"To use docker you must already have <code>docker-compose</code> installed. You can review the Docker image <a href=\"https://gitlab.com/Shinobi-Systems/ShinobiDocker.git\">here</a>. Videos and the MariaDB files are stored in the cloned folder."
                },
                {
                    "orderList":[
                        {
                            "text":"Clone the Repo and enter the docker-shinobi directory.",
                            "code":"git clone https://gitlab.com/Shinobi-Systems/ShinobiDocker.git ShinobiDocker && cd ShinobiDocker"
                        },
                        {
                            "text":"Compose the image and spark one up.",
                            "code":"sh start-image.sh"
                        },
                        {
                            "text":"Open your computer's IP address in your web browser on port <code>8080</code>. Open the superuser panel to create an account.",
                            "code":"Web Address : http://xxx.xxx.xxx.xxx:8080/super<br>Username : admin@shinobi.video<br>Password : admin"
                        },
                        {
                            "text":"After account creation head on over to the main Web Address and start using Shinobi!",
                            "code":"http://xxx.xxx.xxx.xxx:8080/"
                        },
                        {
                            "text":"Enjoy!"
                        }
                    ]
                }
            ]
        },
        {
            "description":"Ubuntu : The Easier Way",
            "blocks":[
                {
                    "text":"This installer works well with Ubuntu 17.10.1"
                },
                {
                    "orderList":[
                        {
                            "text":"Open <code>Terminal</code>."
                        },
                        {
                            "text":"Become <b>root</b>.",
                            "code":"sudo su"
                        },
                        {
                            "text":"Install git command line library.",
                            "code":"apt install git -y"
                        },
                        {
                            "text":"Pull the repository.",
                            "code":"git clone https://gitlab.com/Shinobi-Systems/Shinobi.git Shinobi"
                        },
                        {
                            "text":"Open Shinobi directory.",
                            "code":"cd Shinobi"
                        },
                        {
                            "text":"Start the installer",
                            "code":"chmod +x INSTALL/ubuntu.sh && INSTALL/ubuntu.sh"
                        },
                        {
                            "text":"Packages will be installed. MariaDB will ask to create a password on first installation."
                        },
                        {
                            "text":"Once complete. Open up <code>http://localhost:8080</code> in your browser.",
                            "list":[
                                {
                                    "text":"<b>Note :</b> if you are installed on a remote computer open up the IP in your web browser."
                                }
                            ]
                        },
                        {
                            "text":"Default credentials are as follows if you chose to install <code>default_data.sql</code>.",
                            "code":"Username : ccio@m03.ca<br>Password : password"
                        },
                        {
                            "text":"To update Shinobi with git and restart :",
                            "code":"cd Shinobi<br>git pull<br>pm2 restart camera.js<br>pm2 restart cron.js"
                        }
                    ]
                }
            ]
        },
        {
            "description":"Ubuntu : The Harder Way",
            "blocks":[
                {
                    "text":"This installer works well with Ubuntu 17 and 18."
                },
                {
                    "text":"<b>Dont have FFMPEG installed?</b>",
                    "orderList":[
                        {
                            "text":"Open <code>Terminal</code>."
                        },
                        {
                            "text":"Add the ffmpeg 3.x repo if you are not on Ubuntu 17+.",
                            "code":"sudo add-apt-repository ppa:jonathonf/ffmpeg-3"
                        },
                        {
                            "text":"Install the libraries.",
                            "code":"sudo apt update && sudo apt install ffmpeg libav-tools x264 x265"
                        },
                        {
                            "text":"Now run ffmpeg once to see that it works.",
                            "code":"ffmpeg"
                        },
                        {
                            "text":"Can't get FFMPEG 3.x through a repository? Try a static build. Keep in mind this does not work with as many cameras as installing from repo or building yourself.",
                            "list":[
                                {
                                    "text":"<a href=\"https://gitlab.com/Shinobi-Systems/ffmpegTheEasyWay\">How to install a static build of FFMPEG</a> - <code>https://gitlab.com/Shinobi-Systems/ffmpegTheEasyWay</code>"
                                },
                                {
                                    "text":"<a href=\"http://cdn.shinobi.video/installers/ffmpeg-release-32bit-static.tar.xz\">Version 3.3 - 32bit</a> - <code>http://cdn.shinobi.video/installers/ffmpeg-release-32bit-static.tar.xz</code>"
                                },
                                {
                                    "text":"<a href=\"http://cdn.shinobi.video/installers/ffmpeg-release-64bit-static.tar.xz\">Version 3.3 - 64bit</a> - <code>http://cdn.shinobi.video/installers/ffmpeg-release-64bit-static.tar.xz</code>"
                                },
                                {
                                    "text":"<a href=\"http://cdn.shinobi.video/installers/ffmpeg-release-armel-32bit-static.tar.xz\">Version 3.3 - ARMel</a> - <code>http://cdn.shinobi.video/installers/ffmpeg-release-armel-32bit-static.tar.xz</code>"
                                },
                                {
                                    "text":"<a href=\"http://cdn.shinobi.video/installers/ffmpeg-release-armhf-32bit-static.tar.xz\">Version 3.3 - ARMhf</a> - <code>http://cdn.shinobi.video/installers/ffmpeg-release-armhf-32bit-static.tar.xz</code>"
                                }
                            ],
                            "text":"If you choose to build yourself you must enabled the following flags for Shinobi to work correctly.",
                            "code":"--enable-gpl --enable-version3 --enable-static --disable-debug --disable-ffplay --disable-indev=sndio --disable-outdev=sndio --cc=gcc-5 --enable-fontconfig --enable-frei0r --enable-gnutls --enable-gray --enable-libass --enable-libfreetype --enable-libfribidi --enable-libmp3lame --enable-libopencore-amrnb --enable-libopencore-amrwb --enable-libopenjpeg --enable-libopus --enable-librtmp --enable-libsoxr --enable-libspeex --enable-libtheora --enable-libvidstab --enable-libvo-amrwbenc --enable-libvorbis --enable-libvpx --enable-libwebp --enable-libx264 --enable-libx265 --enable-libxvid --enable-libzimg"
                        }
                    ]
                },
                {
                    "text":"<b>Dont have Node.js installed?</b>",
                    "orderList":[
                        {
                            "text":"Open <code>Terminal</code>."
                        },
                        {
                            "text":"Install Node.js and it's package manager<br><em>Note :</em> <code>#apt-get install node</code> installs something else, not Node.js.",
                            "code":"sudo apt update<br>sudo apt install curl gnupg2 -y<br>curl -sL https://deb.nodesource.com/setup_8.x | sudo -E bash -<br>sudo apt install nodejs -y<br>sudo apt install npm -y"
                        },
                        {
                            "text":"Create a symlink to use nodejs.<br>pm2 needs this. If you don't plan on using pm2, then ignore this step.",
                            "code":"ln -s /usr/bin/nodejs /usr/bin/node"
                        }
                    ]
                },
                {
                    "text":"<b>Dont have MySQL / MariaDB installed?</b>",
                    "orderList":[
                        {
                            "text":"Open <code>Terminal</code>."
                        },
                        {
                            "text":"Install MariaDB. First installation of the database will prompt you to set a password for <code>root</code> user in the database.",
                            "code":"apt install mariadb-server mariadb-client -y"
                        }
                    ]
                },
                {
                    "text":"<b>Application Install</b>",
                    "orderList":[
                        {
                            "text":"Open <code>Terminal</code>."
                        },
                        {
                            "text":"Download Shinobi with <code>wget</code> if you don't have <code>git</code> installed. Do this only if you haven't already downloaded the files.",
                            "code":"wget https://gitlab.com/Shinobi-Systems/Shinobi/-/archive/master/Shinobi-master.tar.gz"
                        },
                        {
                            "text":"Untar the downloaded file. The extracted directory is the shinobi directory.",
                            "code":"tar -xzf master"
                        },
                        {
                            "text":"Rename the directory for easier access. The extracted folder name will be different. <code>moeiscool-Shinobi-XXXXXXX</code> is only an example. Find the real folder name by doing `ls`.",
                            "code":"mv moeiscool-Shinobi-XXXXXXX shinobi"
                        },
                        {
                            "text":"Set permissions on the shinobi directory. <em>Where <code>camera.js</code> is located.</em>",
                            "code":"chmod -R 755 shinobi"
                        },
                        {
                            "text":"Open Shinobi directory.",
                            "code":"cd shinobi"
                        },
                        {
                            "text":"<b>Setup SQL.</b> Go to <code>sql</code> and install the SQL files in your database.",
                            "code":"cd sql"
                        },
                        {
                            "text":"Access MariaDB SQL Database from Terminal. The password will have been set during the installation of MySQL.",
                            "code":"mysql -u root -p"
                        },
                        {
                            "text":"<em>OPTIONAL :</em> Create New SQL User with privileges. If you choose to use your own pre-defined credentials skip this step.",
                            "code":"source ./user.sql",
                            "list":[
                                {
                                    "text":"or create your own",
                                    "code":"CREATE USER 'majesticflame'@'127.0.0.1' IDENTIFIED BY '';<br>GRANT ALL PRIVILEGES ON * . * TO 'majesticflame'@'127.0.0.1';<br>FLUSH PRIVILEGES;"
                                }
                            ]
                        },
                        {
                            "text":"while still in the SQL client. Install the Shinobi database. It will create a database called <code>ccio</code>.",
                            "code":"source ./framework.sql"
                        },
                        {
                            "text":"<em>OPTIONAL :</em> <code>default_data.sql</code> contains a demo user and a demo <code>jpeg input</code> monitor.",
                            "code":"source ./default_data.sql"
                        },
                        {
                            "text":"After importing the data. Exit the sql client.",
                            "code":"exit"
                        },
                        {
                            "text":"Go up one directory to enter the main directory. <em>Where <code>camera.js</code> is located.</em>",
                            "code":"cd .."
                        },
                        {
                            "text":"Copy <code>conf.sample.json</code> as another file named <code>conf.json</code>.",
                            "code":"cp conf.sample.json conf.json"
                        },
                        {
                            "text":"Edit <code>conf.json</code> to reflect your sql credentials. I don't reccommend using root.",
                            "code":"nano conf.json"
                        }
                    ]
                },
                {
                    "text":"<b>Install Libraries</b>",
                    "orderList":[
                        {
                            "text":"Run <code>npm install</code> while in the main directory. This will install the libraries Shinobi needs. PM2 is needed to use UPDATE.sh and to Daeomonize the process",
                            "code":"npm install&&npm install pm2 -g"
                        },
                        {
                            "text":"Copy <code>super.sample.json</code> as another file named <code>super.json</code>.",
                            "code":"cp super.sample.json super.json"
                        }
                    ]
                },
                {
                    "text":"<b>Launch Shinobi</b>",
                    "orderList":[
                        {
                            "text":"then to start :",
                            "code":"pm2 start camera.js"
                        },
                        {
                            "text":"Run <code>pm2 logs</code> to see the console for any errors.",
                            "list":[
                                {
                                    "text":"<code>forever</code> is another program to daemonize, but i've had more success with <code>pm2</code>."
                                }
                            ]
                        },
                        {
                            "text":"To get your IP you can run the following command.",
                            "code":"ifconfig"
                        },
                        {
                            "text":"Open up <code>http://YOUR_IP:8080</code> in your browser. The <b>Default Login</b> was originally set by adding <code>default_data.sql</code>.",
                            "list":[
                                {
                                    "code":"Username : ccio@m03.ca<br>Password : password"
                                }
                            ]
                        }
                    ]
                }
            ]
        },
        {
            "description":"CentOS, Fedora, RHEL : The Easier Way",
            "blocks":[
                {
                    "text":"This installer works well with CentOS 7."
                },
                {
                    "orderList":[
                        {
                            "text":"Open <code>Terminal</code>."
                        },
                        {
                            "text":"Download and Install Node.js, NPM.",
                            "code":"sudo yum update<br>sudo yum install curl -y<br>curl --silent --location https://rpm.nodesource.com/setup_8.x | bash -<br>sudo yum install nodejs npm -y"
                        },
                        {
                            "text":"Install git command line library.",
                            "code":"yum install git -y"
                        },
                        {
                            "text":"Pull the <code>master</code> repository.",
                            "code":"git clone https://gitlab.com/Shinobi-Systems/Shinobi.git Shinobi"
                        },
                        {
                            "text":"Open Shinobi directory.",
                            "code":"cd Shinobi"
                        },
                        {
                            "text":"Start the installer",
                            "code":"chmod +x INSTALL/centos.sh && INSTALL/centos.sh"
                        },
                        {
                            "text":"Packages will be installed. MariaDB will ask to create a password on first installation."
                        },
                        {
                            "text":"Once complete. Open up <code>http://localhost:8080</code> in your browser.",
                            "list":[
                                {
                                    "text":"<b>Note :</b> if you are installed on a remote computer open up the IP in your web browser."
                                }
                            ]
                        },
                        {
                            "text":"Default credentials are as follows if you chose to install <code>default_data.sql</code>.",
                            "code":"Username : ccio@m03.ca<br>Password : password"
                        },
                        {
                            "text":"To update Shinobi with git and restart :",
                            "code":"cd Shinobi<br>git pull<br>pm2 restart camera.js<br>pm2 restart cron.js"
                        }
                    ]
                }
            ]
        },
        {
            "description":"Windows : The Hard Way",
            "blocks":[
                {
                    "blockquote":"<p><b>Warning :</b> Shinobi is running on a process manager, <code>PM2</code>, which sometimes opens command windows for other tasks. Choosing not to use PM2 avoids this command window issue, see below on different start methods.</p><p>Please create a <b><a href=\"https://www.youtube.com/watch?v=0OKji4QF2lA\" target=\"_blank\" title=\"Video and Download Link to ImDisk\">Ram Disk</a></b> or use an <b>SD card</b> for your temporary files. To avoid this you can install Ubuntu Desktop instead. Ubuntu comes with a temporary directory for you to use by default so it is not necessary to set one for it.</p>"
                },
                {
                    "text":"You will need a few things installed before being able to run Shinobi.",
                    "list":[
                        {
                            "text":"<a href=\"https://gitlab.com/Shinobi-Systems/Shinobi/-/archive/master/Shinobi-master.zip\">Shinobi</a> <i>Latest Master</i>"
                        },
                        {
                            "text":"<a href=\"https://cdn.shinobi.video/installers/node-v6.10.3-x64.msi\">Node.js 6.10.3+</a>"
                        },
                        {
                            "text":"<a href=\"https://cdn.shinobi.video/installers/mariadb-10.2.6-winx64.msi\">MariaDB 10.2.6+</a>"
                        },
                        {
                            "text":"<a href=\"https://cdn.shinobi.video/installers/HeidiSQL_9.4.0.5125_Setup.exe\">HeidiSQL 9.4+</a> <i>or use your own SQL client.</i>"
                        },
                        {
                            "text":"FFmpeg 3.3.1",
                            "list":[
                                {
                                    "text":"<a href=\"https://cdn.shinobi.video/installers/ffmpeg-3.3.1-win64-static.zip\">64bit (x64)</a>"
                                },
                                {
                                    "text":"<a href=\"https://cdn.shinobi.video/installers/ffmpeg-3.3.1-win32-static.zip\">32bit (x86)</a>"
                                }
                            ]
                        }
                    ]
                },
                {
                    "text":"Install Node.js, MariaDB and your favorite SQL client. The links are posted above.",
                    "orderList":[
                        {
                            "text":"MariaDB : <a href=\"https://www.youtube.com/watch?v=v0Q1zFVvX3M\">How to Install MariaDB in under 2 Minutes</a>"
                        },
                        {
                            "text":"Once all those are installed download and extract Shinobi and place where you want it to run from.",
                            "code":"<i>Example</i> C:/Shinobi"
                        },
                        {
                            "text":"Open HeidiSQL (or your SQL client) and log in to the MariaDB server now running on your system. The credentials are the ones you put in during the installation of MariaDB."
                        },
                        {
                            "text":"Open the <b>Query</b> tab on HeidiSQL. Then open your Shinobi directory and locate the folder labeled <code>sql</code>. Drag the following files to your query tab and click the <i class=\"fa fa-play\"></i> <b>Run</b> button to import the database.",
                            "list":[
                                {
                                    "text":"framework.sql"
                                },
                                {
                                    "text":"user.sql"
                                },
                                {
                                    "text":"default_data.sql"
                                }
                            ]
                        },
                        {
                            "text":"Open the ffmpeg zip you downloaded. Find the folder labelled <code>bin</code>. Copy this folder into your Shinobi directory and rename it to <code>ffmpeg</code>.",
                            "code":"<i>Example</i> C:/Shinobi/ffmpeg"
                        },
                        {
                            "text":"Make a copy of <b>conf.sample.json</b> and rename it to <b>conf.json</b>.",
                            "blockquote":"<p>Set your <code>windowsTempDir</code> inside your <code>conf.json</code>. <b>You must do this on Windows</b> or you may end up with very bad performance and possibly shortening the life of your hardware at the same time. </p><p>It is recommended that you use <a href=\"https://www.youtube.com/watch?v=0OKji4QF2lA\" target=\"_blank\" title=\"Video and Download Link to ImDisk\">ImDisk</a> or a SD Card as the temporary directory.</p><p>More information about <code>conf.json</code> file can be found <a class=\"scrollto\" href=\"#config_conf\">here</a>.</p>",
                            "code":"\"windowsTempDir\":\"R:/Temp\""
                        },
                        {
                            "text":"Open Command Prompt. Click the <b>Start Menu</b> on your Windows taskbar and begin typing <code>cmd.exe</code>. Open the Shinobi directory.",
                            "code":"cd C:/Shinobi"
                        },
                        {
                            "text":"Install the Shinobi libraries.",
                            "code":"npm install pm2 -g<br>npm install"
                        },
                        {
                            "text":"Run Shinobi one of two ways.",
                            "list":[
                                {
                                    "text":"<b>With Process Manager</b> (you can close the initial command windows after starting with automatic restart if process crashes)",
                                    "code":"pm2 start camera.js<br>pm2 start cron.js"
                                },
                                {
                                    "text":"<b>The regular way</b> (you must keep the command window open after starting shinobi, no other command windows should be visible.)",
                                    "orderList":[
                                        {
                                            "code":"node camera.js"
                                        },
                                        {
                                            "text":"Open a new Command prompt window and start the cron script.",
                                            "code":"node cron.js"
                                        }
                                    ]
                                }
                            ]
                        }
                    ]
                }
            ]
        },
        {
            "description":"MacOS : Native",
            "blocks":[
                {
                    "ejs":"macos"
                }
            ]
        }
    ],
    "Account Management":[
        {
            "description":"Set up Superuser Access",
            "blocks":[
                {
                    "text":"Rename <code>super.sample.json</code> to <code>super.json</code>. Run the following command inside the Shinobi directory with terminal. <i>Passwords are saved as MD5 strings.</i> <b>You only need to do this step once.</b>",
                    "code":"cp super.sample.json super.json"
                },
                {
                    "text":"Login at <code>http://your.shinobi.video/super</code>.",
                    "code":"Username : admin@shinobi.video<br>Password : admin"
                },
                {
                    "text":"You should now be able to manage accounts"
                }
            ]
        },
        {
            "description":"Set up Sub-Accounts",
            "blocks":[
                {
                    "text":"Login at <code>http://your.shinobi.video/admin</code>. With the main account of the group. If a sub account is used to login to this page it will be directed to the regular dashboard."
                }
            ]
        }
    ],
    "Clean up":[
        {
            "description":"Set up the cron file",
            "blocks":[
                {
                    "ejs":"cron"
                }
            ]
        }
    ],
    "Updating Shinobi":[
        {
            "description":"Getting the latest files",
            "blocks":[
                {
                    "ejs":"update"
                }
            ]
        }
    ],
    "Daemonize and Startup":[
        {
            "description":"Keep running and on boot",
            "blocks":[
                {
                    "ejs":"daemon"
                }
            ]
        }
    ],
    "Configuration":[
        {
            "description":"Default Login",
            "blocks":[
                {
                    "ejs":"config"
                }
            ]
        }
    ],
    "Troubleshooting":[
        {
            "description":"Finding Problems",
            "blocks":[
                {
                    "ejs":"troubleshoot"
                }
            ]
        }
    ]
}
